13
NM_204169.1_Gallus_gallus
NM_001033969.1_Monodelphis_domestica 0.835249042146
NM_009764.3_Mus_musculus 0.848484848485 0.788844621514
NM_012514.1_Rattus_norvegicus 0.838461538462 0.8203125 0.474747474747
NM_178573.1_Bos_taurus 0.829457364341 0.73640167364 0.601851851852 0.648648648649
NM_001013416.1_Canis_lupus 0.830769230769 0.748971193416 0.642857142857 0.663716814159 0.349726775956
NM_001302103.1_Papio_anubis 0.844106463878 0.754098360656 0.642857142857 0.63963963964 0.410526315789 0.52427184466
NM_001301366.1_Macaca_fascicularis 0.844106463878 0.754098360656 0.642857142857 0.63963963964 0.410526315789 0.52427184466 0.025974025974
NM_001114949.1_Macaca_mulatta 0.844106463878 0.754098360656 0.642857142857 0.63963963964 0.410526315789 0.52427184466 0.025974025974 0.025974025974
NM_001308668.1_Nomascus_leucogenys 0.852830188679 0.774193548387 0.648888888889 0.663716814159 0.49     0.592592592593 0.190476190476 0.190476190476 0.190476190476
NM_007294.3_Homo_sapiens 0.84962406015 0.776    0.627802690583 0.654867256637 0.49504950495 0.556603773585 0.261363636364 0.261363636364 0.261363636364 0.111111111111
NM_001301758.1_Pan_paniscus 0.846441947566 0.777777777778 0.631111111111 0.657894736842 0.514563106796 0.574074074074 0.25     0.25     0.25     0.0987654320988 0.0379746835443
NM_001045493.1_Pan_troglodytes 0.846441947566 0.777777777778 0.631111111111 0.657894736842 0.521739130435 0.587155963303 0.269662921348 0.269662921348 0.269662921348 0.121951219512 0.0625   0.05
