12
Homo_sapiens_SHH
Gallus_gallus_SHH 0.89247311828
Mus_musculus_SHH 0.894736842105 0.373983739837
Monodelphis_domestica_SHH 0.881720430108 0.322033898305 0.302521008403
Sus_scrofa_SHH 0.881720430108 0.336134453782 0.24347826087 0.275862068966
Rattus_norvegicus_SHH 0.881720430108 0.403225806452 0.11214953271 0.333333333333 0.275862068966
Bos_taurus_IHH 0.363636363636 0.868131868132 0.864864864865 0.869565217391 0.850828729282 0.863387978142
Xenopus_laevis_SHH 0.882978723404 0.449612403101 0.430769230769 0.458015267176 0.434108527132 0.458015267176 0.882978723404
Gallus_gallus_IHH 0.870967741935 0.571428571429 0.542857142857 0.546762589928 0.525547445255 0.546762589928 0.858695652174 0.630872483221
Xenopus_laevis_IHH 0.866310160428 0.616438356164 0.598639455782 0.56338028169 0.56338028169 0.602739726027 0.860215053763 0.653594771242 0.451127819549
Rattus_norvegicus_IHH 0.895027624309 0.623188405797 0.624113475177 0.598540145985 0.608695652174 0.628571428571 0.901098901099 0.689189189189 0.396694214876 0.526315789474
Danio_rerio_SHH 0.908108108108 0.386554621849 0.352941176471 0.34188034188 0.327586206897 0.383333333333 0.871508379888 0.480620155039 0.537313432836 0.565217391304 0.611940298507
