8
F         
G          0.75
H          0.8      0.727272727273
A          0.789473684211 0.789473684211 0.736842105263
B          0.789473684211 0.789473684211 0.769230769231 0.375
C          0.787878787879 0.823529411765 0.833333333333 0.789473684211 0.820512820513
D          0.827586206897 0.785714285714 0.838709677419 0.75     0.709677419355 0.740740740741
E          0.787878787879 0.823529411765 0.764705882353 0.722222222222 0.756756756757 0.75     0.827586206897
