13
NM_204169.1_Gallus_gallus
NM_001033969.1_Monodelphis_domestica 0.842105263158
NM_009764.3_Mus_musculus 0.844444444444 0.785992217899
NM_012514.1_Rattus_norvegicus 0.837735849057 0.819923371648 0.463054187192
NM_178573.1_Bos_taurus 0.834586466165 0.729508196721 0.591928251121 0.63436123348
NM_001013416.1_Canis_lupus 0.834586466165 0.75     0.634782608696 0.658008658009 0.340425531915
NM_001302103.1_Papio_anubis 0.856088560886 0.755020080321 0.634782608696 0.628318584071 0.4      0.514285714286
NM_001301366.1_Macaca_fascicularis 0.856088560886 0.755020080321 0.634782608696 0.628318584071 0.4      0.514285714286 0.0253164556962
NM_001114949.1_Macaca_mulatta 0.856088560886 0.755020080321 0.634782608696 0.628318584071 0.4      0.514285714286 0.0253164556962 0.0253164556962
NM_001308668.1_Nomascus_leucogenys 0.860294117647 0.769841269841 0.640692640693 0.652173913043 0.478048780488 0.581818181818 0.186046511628 0.186046511628 0.186046511628
NM_007294.3_Homo_sapiens 0.856088560886 0.769841269841 0.616740088106 0.646288209607 0.492753623188 0.555555555556 0.266666666667 0.266666666667 0.266666666667 0.120481927711
NM_001301758.1_Pan_paniscus 0.85401459854 0.7734375 0.623376623377 0.646551724138 0.502369668246 0.563636363636 0.244444444444 0.244444444444 0.244444444444 0.0963855421687 0.0493827160494
NM_001045493.1_Pan_troglodytes 0.85401459854 0.7734375 0.623376623377 0.646551724138 0.509433962264 0.576576576577 0.263736263736 0.263736263736 0.263736263736 0.119047619048 0.0731707317073 0.0487804878049
