13
NM_204169.1_Gallus_gallus
NM_001033969.1_Monodelphis_domestica 0.625
NM_009764.3_Mus_musculus 0.727272727273 0.6
NM_012514.1_Rattus_norvegicus 0.727272727273 0.645161290323 0.461538461538
NM_178573.1_Bos_taurus 0.6875   0.6      0.461538461538 0.461538461538
NM_001013416.1_Canis_lupus 0.727272727273 0.6      0.461538461538 0.461538461538 0.181818181818
NM_001302103.1_Papio_anubis 0.727272727273 0.645161290323 0.518518518519 0.260869565217 0.461538461538 0.461538461538
NM_001301366.1_Macaca_fascicularis 0.727272727273 0.645161290323 0.518518518519 0.260869565217 0.461538461538 0.461538461538 0.181818181818
NM_001114949.1_Macaca_mulatta 0.727272727273 0.645161290323 0.518518518519 0.260869565217 0.461538461538 0.461538461538 0.181818181818 0.181818181818
NM_001308668.1_Nomascus_leucogenys 0.727272727273 0.645161290323 0.518518518519 0.260869565217 0.461538461538 0.461538461538 0.181818181818 0.181818181818 0.181818181818
NM_007294.3_Homo_sapiens 0.6875   0.645161290323 0.461538461538 0.333333333333 0.461538461538 0.461538461538 0.4      0.4      0.4      0.4
NM_001301758.1_Pan_paniscus 0.727272727273 0.645161290323 0.518518518519 0.4      0.461538461538 0.461538461538 0.333333333333 0.333333333333 0.333333333333 0.333333333333 0.260869565217
NM_001045493.1_Pan_troglodytes 0.727272727273 0.645161290323 0.518518518519 0.4      0.461538461538 0.461538461538 0.333333333333 0.333333333333 0.333333333333 0.333333333333 0.260869565217 0.181818181818
